最新R语言版本：玩转数据处理120题 附多重解法，要点摘要……
…
df_23_1 <- df %>% 
    rowwise() %>%
    mutate(salary =  str_extract_all(salary,
                                     "\\d+") %>% 
    unlist() %>% 
    as.numeric() %>% 
    mean()*1000 %>% 
        unlist()) %>% 
    ungroup()

df_23_1

## # A tibble: 135 × 3
##    createTime          education salary
##    <dttm>              <chr>      <dbl>
##  1 2020-03-16 11:30:18 本科       27500
##  2 2020-03-16 10:58:47 本科       30000
##  3 2020-03-16 10:46:39 不限       27500
##  4 2020-03-16 10:45:44 本科       16500
##  5 2020-03-16 10:20:41 本科       15000
##  6 2020-03-16 10:33:47 本科       14000
##  7 2020-03-16 10:11:54 硕士       23000
##  8 2020-03-16 09:49:11 本科       12500
##  9 2020-03-16 09:25:47 不限        7000
## 10 2020-03-16 09:35:50 本科       16000
## # ℹ 125 more rows
…
df_23_3 <-  df %>% 
     tidyr::separate(salary,
                     into = c("low","high"),
                     sep = "-") %>% 
       rowwise() %>% 
    mutate(salary = 1000*mean(c(parse_number(low),
                           parse_number(high)
                           )
                         )
           ) %>% 
    ungroup()

df_23_3

## # A tibble: 135 × 5
##    createTime          education low   high  salary
##    <dttm>              <chr>     <chr> <chr>  <dbl>
##  1 2020-03-16 11:30:18 本科      20k   35k    27500
##  2 2020-03-16 10:58:47 本科      20k   40k    30000
##  3 2020-03-16 10:46:39 不限      20k   35k    27500
##  4 2020-03-16 10:45:44 本科      13k   20k    16500
##  5 2020-03-16 10:20:41 本科      10k   20k    15000
##  6 2020-03-16 10:33:47 本科      10k   18k    14000
##  7 2020-03-16 10:11:54 硕士      16k   30k    23000
##  8 2020-03-16 09:49:11 本科      10k   15k    12500
##  9 2020-03-16 09:25:47 不限      6k    8k      7000
## 10 2020-03-16 09:35:50 本科      12k   20k    16000
## # ℹ 125 more rows
…
27.4 方法4:case_when()
函数实现。

df_28 <- df_23_3 %>% 
mutate(salary_level = case_when(salary>=25000 ~"高",
                                salary< 14000 ~"低",
                                .default =  "中"))  
df_28  

## # A tibble: 135 × 6
##    createTime          education low   high  salary salary_level
##    <dttm>              <chr>     <chr> <chr>  <dbl> <chr>       
##  1 2020-03-16 11:30:18 本科      20k   35k    27500 高          
##  2 2020-03-16 10:58:47 本科      20k   40k    30000 高          
##  3 2020-03-16 10:46:39 不限      20k   35k    27500 高          
##  4 2020-03-16 10:45:44 本科      13k   20k    16500 中          
##  5 2020-03-16 10:20:41 本科      10k   20k    15000 中          
##  6 2020-03-16 10:33:47 本科      10k   18k    14000 中          
##  7 2020-03-16 10:11:54 硕士      16k   30k    23000 中          
##  8 2020-03-16 09:49:11 本科      10k   15k    12500 低          
##  9 2020-03-16 09:25:47 不限      6k    8k      7000 低          
## 10 2020-03-16 09:35:50 本科      12k   20k    16000 中          
## # ℹ 125 more rows
…
    column_to_rownames("createTime")

40
生成一个和df长度相同的随机数dataframe

可以使用data.frame()和tibble()实现，本题使用tibble()实现。

df42 <- tibble(random_num = runif(nrow(df_28),
                                     100,
                                     1000))

df42 

## # A tibble: 135 × 1
##    random_num
##         <dbl>
##  1       209.
##  2       103.
##  3       747.
##  4       184.
##  5       167.
##  6       327.
##  7       590.
##  8       875.
##  9       199.
## 10       937.
## # ℹ 125 more rows
…
 ma_fun <- function(data, width){
   i  = length(data)
   if(width > i){
       return("数据不够，请增加数据")
   }
   k =width:i
   ma_value =c(rep(NA,width-1),
              map_vec(k,\(x) mean(data[(x-(width-1)):x])))
return( ma_value)
 }
 
data_65 %>% 
    transmute(average_5 = ma_fun(`收盘价(元)`,5))

## # A tibble: 309 × 1
##    average_5
##        <dbl>
##  1      NA  
##  2      NA  
##  3      NA  
##  4      NA  
##  5      15.7
##  6      15.6
##  7      15.5
##  8      15.3
##  9      15.4
## 10      15.4
## # ℹ 299 more rows

68.2
方法2：调用相关的基础函数计算：zoo::rollmean()函数

data_65 %>% 
    transmute(average_5 = zoo::rollmean(`收盘价(元)`,5,
                                        align = "right",
                                        fill = NA))

## # A tibble: 309 × 1
##    average_5
##        <dbl>
##  1      NA  
##  2      NA  
##  3      NA  
##  4      NA  
##  5      15.7
##  6      15.6
##  7      15.5
##  8      15.3
##  9      15.4
## 10      15.4
## # ℹ 299 more rows

68.3
方法3：调用相关的基础函数计算：DescTools::MoveAvg()函数

data_65 %>% 
    transmute(average_5 = DescTools::MoveAvg(x = `收盘价(元)`,
                                             order = 5,
                                             align = "right",
                                             endrule = "NA" )) 

## # A tibble: 309 × 1
##    average_5
##        <dbl>
##  1      NA  
##  2      NA  
##  3      NA  
##  4      NA  
##  5      15.7
##  6      15.6
##  7      15.5
##  8      15.3
##  9      15.4
## 10      15.4
## # ℹ 299 more rows

68.4
方法4：调用相关的基础函数计算：slider::slide_dbl()函数

data_65 %>% 
    transmute(average_5 = slider::slide_dbl( `收盘价(元)`, 
                                         mean, 
                                         .before = 4, 
                                         .complete = TRUE)) 

## # A tibble: 309 × 1
##    average_5
##        <dbl>
##  1      NA  
##  2      NA  
##  3      NA  
##  4      NA  
##  5      15.7
##  6      15.6
##  7      15.5
##  8      15.3
##  9      15.4
## 10      15.4
## # ℹ 299 more rows
…
 ms_fun <- function(data, width){
   i  = length(data)
   if(width > i){
       return("数据不够，请增加数据")
   }
   k =width:i
   ms_value =c(rep(NA,width-1),
              map_vec(k,\(x) sum(data[(x-(width-1)):x])))
return( ms_value)
 }
 
data_65 %>% 
    transmute(sum_5 = ms_fun(`收盘价(元)`,5))

## # A tibble: 309 × 1
##    sum_5
##    <dbl>
##  1  NA  
##  2  NA  
##  3  NA  
##  4  NA  
##  5  78.5
##  6  77.8
##  7  77.4
##  8  76.7
##  9  77.1
## 10  77.2
## # ℹ 299 more rows

69.2
方法2：调用相关的基础函数计算：zoo::rollsum函数

有很多金融和时序相关的包都有类似函数，类似roll sum,move
average这类函数，见诸于zoo,xts,quantmod,TTR等包，而tidyquant有个综合函数，整合引用这些函数。这里用zoo包里的函数做一下。

data_65 %>% 
    transmute(sum_5 = zoo::rollsum(`收盘价(元)`,
                                   5,
                                   align = "right",
                                   fill = NA))

## # A tibble: 309 × 1
##    sum_5
##    <dbl>
##  1  NA  
##  2  NA  
##  3  NA  
##  4  NA  
##  5  78.5
##  6  77.8
##  7  77.4
##  8  76.7
##  9  77.1
## 10  77.2
## # ℹ 299 more rows

69.3
方法3：调用相关的基础函数计算：slider::slide_dbl()函数

data_65 %>% 
    transmute(sum_5 = slider::slide_dbl( `收盘价(元)`, 
                                         sum, 
                                         .before = 4, 
                                         .complete = TRUE))

## # A tibble: 309 × 1
##    sum_5
##    <dbl>
##  1  NA  
##  2  NA  
##  3  NA  
##  4  NA  
##  5  78.5
##  6  77.8
##  7  77.4
##  8  76.7
##  9  77.1
## 10  77.2
## # ℹ 299 more rows
…
71.1
方法1：年、周两级分组求最大值；

这个逻辑还是很清晰的：先group,再执行操作

data_65 %>% 
    select(日期,`收盘价(元)`) %>% 
    mutate(year = year(日期),
        weeknum =  week(日期)) %>% 
    group_by(year,weeknum) %>% 
    slice_max(`收盘价(元)`)

## # A tibble: 74 × 4
## # Groups:   year, weeknum [69]
##    日期                `收盘价(元)`  year weeknum
##    <dttm>                     <dbl> <dbl>   <dbl>
##  1 2016-01-06 00:00:00         16.0  2016       1
##  2 2016-01-14 00:00:00         15.8  2016       2
##  3 2016-01-19 00:00:00         15.7  2016       3
##  4 2016-01-25 00:00:00         15.0  2016       4
##  5 2016-02-04 00:00:00         15.3  2016       5
##  6 2016-02-05 00:00:00         16.2  2016       6
##  7 2016-02-15 00:00:00         16.3  2016       7
##  8 2016-03-16 00:00:00         15.9  2016      11
##  9 2016-03-22 00:00:00         16.0  2016      12
## 10 2016-03-31 00:00:00         15.8  2016      13
## # ℹ 64 more rows

71.2
方法2：年-组合字段,group 对象作为参数选项放在函数里。

data_65 %>% 
    select(日期,`收盘价(元)`) %>% 
    mutate(year_week = str_c(year(日期),
                             week(日期),
                             sep = "_")) %>% 
    slice_max(`收盘价(元)`,by = year_week ) 

## # A tibble: 74 × 3
##    日期                `收盘价(元)` year_week
##    <dttm>                     <dbl> <chr>    
##  1 2016-01-06 00:00:00         16.0 2016_1   
##  2 2016-01-14 00:00:00         15.8 2016_2   
##  3 2016-01-19 00:00:00         15.7 2016_3   
##  4 2016-01-25 00:00:00         15.0 2016_4   
##  5 2016-02-04 00:00:00         15.3 2016_5   
##  6 2016-02-05 00:00:00         16.2 2016_6   
##  7 2016-02-15 00:00:00         16.3 2016_7   
##  8 2016-03-16 00:00:00         15.9 2016_11  
##  9 2016-03-22 00:00:00         16.0 2016_12  
## 10 2016-03-31 00:00:00         15.8 2016_13  
## # ℹ 64 more rows

71.3
方法3：年周日期字段，group对象作为参数选项放在函数里。

data_65 %>% 
    select(日期,`收盘价(元)`) %>% 
    mutate(年_周 = format(日期,'%Y-%W')) %>% 
    slice_max(`收盘价(元)`,by = 年_周) 

## # A tibble: 74 × 3
##    日期                `收盘价(元)` 年_周  
##    <dttm>                     <dbl> <chr>  
##  1 2016-01-06 00:00:00         16.0 2016-01
##  2 2016-01-14 00:00:00         15.8 2016-02
##  3 2016-01-19 00:00:00         15.7 2016-03
##  4 2016-01-25 00:00:00         15.0 2016-04
##  5 2016-02-05 00:00:00         16.2 2016-05
##  6 2016-02-15 00:00:00         16.3 2016-07
##  7 2016-03-11 00:00:00         15.0 2016-10
##  8 2016-03-16 00:00:00         15.9 2016-11
##  9 2016-03-22 00:00:00         16.0 2016-12
## 10 2016-04-01 00:00:00         16.1 2016-13
## # ℹ 64 more rows

71.4
方法4：年周日期字段,先group，再执行slice()函数。

  week_max <- data_65 %>% 
    select(日期,`收盘价(元)`) %>% 
  group_by(年_周 = format(日期,'%Y-%W')) %>% 
    slice_max(`收盘价(元)`)
week_max

## # A tibble: 74 × 3
## # Groups:   年_周 [67]
##    日期                `收盘价(元)` 年_周  
##    <dttm>                     <dbl> <chr>  
##  1 2016-01-06 00:00:00         16.0 2016-01
##  2 2016-01-14 00:00:00         15.8 2016-02
##  3 2016-01-19 00:00:00         15.7 2016-03
##  4 2016-01-25 00:00:00         15.0 2016-04
##  5 2016-02-05 00:00:00         16.2 2016-05
##  6 2016-02-15 00:00:00         16.3 2016-07
##  7 2016-03-11 00:00:00         15.0 2016-10
##  8 2016-03-16 00:00:00         15.9 2016-11
##  9 2016-03-22 00:00:00         16.0 2016-12
## 10 2016-04-01 00:00:00         16.1 2016-13
## # ℹ 64 more rows

71.5
方法5：执行summarise，用max函数。

data_65 %>% 
    select(日期,`收盘价(元)`) %>% 
    mutate(年_周 = format(日期,'%Y-%W')) %>% 
    summarise(week_max = max(`收盘价(元)`),
              .by = 年_周 ) 

## # A tibble: 67 × 2
##    年_周   week_max
##    <chr>      <dbl>
##  1 2016-01     16.0
##  2 2016-02     15.8
##  3 2016-03     15.7
##  4 2016-04     15.0
##  5 2016-05     16.2
##  6 2016-07     16.3
##  7 2016-10     15.0
##  8 2016-11     15.9
##  9 2016-12     16.0
## 10 2016-13     16.1
## # ℹ 57 more rows
…
73 将数据往后移动5天

不能简单的对整个数据直接lag(5)，这样日期也同时往后移动了，没有意义。

数据长宽转变一样，确定要移动位置的数据列后，再执行lag()函数

本例中，前三列不用移动，后面全部各列均需移动。
这可以用mutate()函数结合across()函数实现

data_65 %>% 
    mutate(across(-(1:3), 
                  ~lag(.x,5)))

## # A tibble: 309 × 18
##    代码      简称  日期                `前收盘价(元)` `开盘价(元)` `最高价(元)`
##    <chr>     <chr> <dttm>                       <dbl>        <dbl>        <dbl>
##  1 600000.SH 浦发… 2016-01-04 00:00:00           NA           NA           NA  
##  2 600000.SH 浦发… 2016-01-05 00:00:00           NA           NA           NA  
##  3 600000.SH 浦发… 2016-01-06 00:00:00           NA           NA           NA  
##  4 600000.SH 浦发… 2016-01-07 00:00:00           NA           NA           NA  
##  5 600000.SH 浦发… 2016-01-08 00:00:00           NA           NA           NA  
##  6 600000.SH 浦发… 2016-01-11 00:00:00           16.1         16.1         16.1
##  7 600000.SH 浦发… 2016-01-12 00:00:00           15.7         15.5         16.0
##  8 600000.SH 浦发… 2016-01-13 00:00:00           15.9         15.8         16.0
##  9 600000.SH 浦发… 2016-01-14 00:00:00           16.0         15.7         15.8
## 10 600000.SH 浦发… 2016-01-15 00:00:00           15.5         15.7         15.8
## # ℹ 299 more rows
## # ℹ 12 more variables: `最低价(元)` <dbl>, `收盘价(元)` <dbl>,
## #   `成交量(股)` <chr>, `成交金额(元)` <chr>, `涨跌(元)` <dbl>,
## #   `涨跌幅(%)` <dbl>, `均价(元)` <chr>, `换手率(%)` <dbl>,
## #   `A股流通市值(元)` <dbl>, `总市值(元)` <dbl>, `A股流通股本(股)` <dbl>,
## #   市盈率 <dbl>

74 将数据向前移动5天

与上题一样的逻辑，lag()函数变成lead函数即可。

data_65 %>% 
    mutate(across(-(1:3), 
                  ~lead(.x,5)))

## # A tibble: 309 × 18
##    代码      简称  日期                `前收盘价(元)` `开盘价(元)` `最高价(元)`
##    <chr>     <chr> <dttm>                       <dbl>        <dbl>        <dbl>
##  1 600000.SH 浦发… 2016-01-04 00:00:00           15.4         15.2         15.4
##  2 600000.SH 浦发… 2016-01-05 00:00:00           15.1         15.2         15.5
##  3 600000.SH 浦发… 2016-01-06 00:00:00           15.4         15.5         15.8
##  4 600000.SH 浦发… 2016-01-07 00:00:00           15.4         15.0         15.9
##  5 600000.SH 浦发… 2016-01-08 00:00:00           15.8         15.7         16.0
##  6 600000.SH 浦发… 2016-01-11 00:00:00           15.5         15.4         15.9
##  7 600000.SH 浦发… 2016-01-12 00:00:00           15.6         15.7         15.8
##  8 600000.SH 浦发… 2016-01-13 00:00:00           15.7         15.6         15.6
##  9 600000.SH 浦发… 2016-01-14 00:00:00           15.2         15.2         15.4
## 10 600000.SH 浦发… 2016-01-15 00:00:00           14.6         14.9         15.1
## # ℹ 299 more rows
## # ℹ 12 more variables: `最低价(元)` <dbl>, `收盘价(元)` <dbl>,
## #   `成交量(股)` <chr>, `成交金额(元)` <chr>, `涨跌(元)` <dbl>,
## #   `涨跌幅(%)` <dbl>, `均价(元)` <chr>, `换手率(%)` <dbl>,
## #   `A股流通市值(元)` <dbl>, `总市值(元)` <dbl>, `A股流通股本(股)` <dbl>,
## #   市盈率 <dbl>

75
使用expending函数计算开盘价的移动窗口均值

这个就是做累计移动平均计算，就是计算截至到本行以来的平均值。使用cummean()函数

data_65 %>% 
    mutate(mean_value =cummean(`开盘价(元)`),
           .after = `开盘价(元)` )

## # A tibble: 309 × 19
##    代码      简称     日期                `前收盘价(元)` `开盘价(元)` mean_value
##    <chr>     <chr>    <dttm>                       <dbl>        <dbl>      <dbl>
##  1 600000.SH 浦发银行 2016-01-04 00:00:00           16.1         16.1       16.1
##  2 600000.SH 浦发银行 2016-01-05 00:00:00           15.7         15.5       15.8
##  3 600000.SH 浦发银行 2016-01-06 00:00:00           15.9         15.8       15.8
##  4 600000.SH 浦发银行 2016-01-07 00:00:00           16.0         15.7       15.8
##  5 600000.SH 浦发银行 2016-01-08 00:00:00           15.5         15.7       15.8
##  6 600000.SH 浦发银行 2016-01-11 00:00:00           15.4         15.2       15.7
##  7 600000.SH 浦发银行 2016-01-12 00:00:00           15.1         15.2       15.6
##  8 600000.SH 浦发银行 2016-01-13 00:00:00           15.4         15.5       15.6
##  9 600000.SH 浦发银行 2016-01-14 00:00:00           15.4         15.0       15.5
## 10 600000.SH 浦发银行 2016-01-15 00:00:00           15.8         15.7       15.5
## # ℹ 299 more rows
## # ℹ 13 more variables: `最高价(元)` <dbl>, `最低价(元)` <dbl>,
## #   `收盘价(元)` <dbl>, `成交量(股)` <chr>, `成交金额(元)` <chr>,
## #   `涨跌(元)` <dbl>, `涨跌幅(%)` <dbl>, `均价(元)` <chr>, `换手率(%)` <dbl>,
## #   `A股流通市值(元)` <dbl>, `总市值(元)` <dbl>, `A股流通股本(股)` <dbl>,
## #   市盈率 <dbl>
…
113
将上一题数据的salary列开根号

df_110 %>% 
    mutate(sqrt_salary = sqrt(salary),
           .after = positionId)

## # A tibble: 105 × 54
##    positionId sqrt_salary positionName   companyId companyLogo       companySize
##         <dbl>       <dbl> <chr>              <dbl> <chr>             <chr>      
##  1    6802721       194.  数据分析          475770 i/image2/M01/B7/… 50-150人   
##  2    5204912       122.  数据建模           50735 image1/M00/00/85… 150-500人  
##  3    6877668        59.2 数据分析          100125 image2/M00/0C/57… 2000人以上 
##  4    6496141       212.  数据分析           26564 i/image2/M01/F7/… 500-2000人 
##  5    6467417       173.  数据分析           29211 i/image2/M01/77/… 2000人以上 
##  6    6882347       224.  数据分析           94826 image2/M00/04/12… 50-150人   
##  7    6841659       173.  数据分析          348784 i/image2/M01/AC/… 50-150人   
##  8    6764018       187.  数据建模工程师     13163 i/image/M00/4B/5… 500-2000人 
##  9    6458372       245.  数据分析专家       34132 i/image2/M01/F8/… 150-500人  
## 10    6786904       200   数据分析师         13163 i/image/M00/4B/5… 500-2000人 
## # ℹ 95 more rows
## # ℹ 48 more variables: industryField <chr>, financeStage <chr>,
## #   companyLabelList <chr>, firstType <chr>, secondType <chr>, thirdType <chr>,
## #   skillLables <chr>, positionLables <chr>, industryLables <chr>,
## #   createTime <chr>, formatCreateTime <chr>, district <chr>,
## #   businessZones <chr>, salary <dbl>, workYear <chr>, jobNature <chr>,
## #   education <chr>, positionAdvantage <chr>, imState <chr>, lastLogin <chr>, …
…
117.1
方法1：group()+summarise()

数据透视，能做的事情比较多，通常的求和，求均值，计数等,和excel表里类似。

df_114 %>% 
    group_by(positionId) %>% 
    summarise(n = n(),
              salary_avg = mean(salary),
              salary_total = sum(salary),
              score_avg = mean(score),
              score_total = sum(score))

## # A tibble: 95 × 6
##    positionId     n salary_avg salary_total score_avg score_total
##         <dbl> <int>      <dbl>        <dbl>     <dbl>       <dbl>
##  1    5203054     1      30000        30000       4             4
##  2    5204912     1      15000        15000     176           176
##  3    5269002     2      37500        75000       1             2
##  4    5453691     1      30000        30000       4             4
##  5    5519962     1      37500        37500      14            14
##  6    5520623     1      30000        30000       6             6
##  7    5559894     1      30000        30000      12            12
##  8    5604926     1      27500        27500       6             6
##  9    5683671     1      26500        26500       3             3
## 10    5921220     8      37500       300000       4.5          36
## # ℹ 85 more rows

117.2 方法2 ：summarise()
+ 参数中进行分组

# 方法2

df_114 %>% 
     summarise(n = n(),
              salary_avg = mean(salary),
              salary_total = sum(salary),
              score_avg = mean(score),
              score_total = sum(score),
              .by = positionId)

## # A tibble: 95 × 6
##    positionId     n salary_avg salary_total score_avg score_total
##         <dbl> <int>      <dbl>        <dbl>     <dbl>       <dbl>
##  1    6802721     1      37500        37500       233         233
##  2    5204912     1      15000        15000       176         176
##  3    6877668     3       3500        10500        80         240
##  4    6496141     1      45000        45000        68          68
##  5    6467417     1      30000        30000        66          66
##  6    6882347     1      50000        50000        66          66
##  7    6841659     1      30000        30000        65          65
##  8    6764018     2      35000        70000        47          94
##  9    6458372     1      60000        60000        24          24
## 10    6786904     2      40000        80000        18          36
## # ℹ 85 more rows
…
